\relax 
\providecommand\hyper@newdestlabel[2]{}
\catcode `:\active 
\catcode `;\active 
\catcode `!\active 
\catcode `?\active 
\providecommand\HyperFirstAtBeginDocument{\AtBeginDocument}
\HyperFirstAtBeginDocument{\ifx\hyper@anchor\@undefined
\global\let\oldcontentsline\contentsline
\gdef\contentsline#1#2#3#4{\oldcontentsline{#1}{#2}{#3}}
\global\let\oldnewlabel\newlabel
\gdef\newlabel#1#2{\newlabelxx{#1}#2}
\gdef\newlabelxx#1#2#3#4#5#6{\oldnewlabel{#1}{{#2}{#3}}}
\AtEndDocument{\ifx\hyper@anchor\@undefined
\let\contentsline\oldcontentsline
\let\newlabel\oldnewlabel
\fi}
\fi}
\global\let\hyper@last\relax 
\gdef\HyperFirstAtBeginDocument#1{#1}
\providecommand\HyField@AuxAddToFields[1]{}
\providecommand\HyField@AuxAddToCoFields[2]{}
\abx@aux@refcontext{nty/global//global/global}
\@writefile{toc}{\boolfalse {citerequest}\boolfalse {citetracker}\boolfalse {pagetracker}\boolfalse {backtracker}\relax }
\@writefile{lof}{\boolfalse {citerequest}\boolfalse {citetracker}\boolfalse {pagetracker}\boolfalse {backtracker}\relax }
\@writefile{lot}{\boolfalse {citerequest}\boolfalse {citetracker}\boolfalse {pagetracker}\boolfalse {backtracker}\relax }
\babel@aux{french}{}
\abx@aux@cite{wiki:Minecraft}
\abx@aux@segm{0}{0}{wiki:Minecraft}
\abx@aux@cite{wiki:Survival_game}
\abx@aux@segm{0}{0}{wiki:Survival_game}
\@writefile{toc}{\defcounter {refsection}{0}\relax }\@writefile{toc}{\contentsline {chapter}{\numberline {1}Introduction}{2}{chapter.1}\protected@file@percent }
\@writefile{lof}{\defcounter {refsection}{0}\relax }\@writefile{lof}{\addvspace {10\p@ }}
\@writefile{lot}{\defcounter {refsection}{0}\relax }\@writefile{lot}{\addvspace {10\p@ }}
\@writefile{toc}{\defcounter {refsection}{0}\relax }\@writefile{toc}{\contentsline {section}{\numberline {1.1}Pr\IeC {\'e}sentation du sujet}{2}{section.1.1}\protected@file@percent }
\abx@aux@page{1}{2}
\abx@aux@page{2}{2}
\@writefile{lof}{\defcounter {refsection}{0}\relax }\@writefile{lof}{\contentsline {figure}{\numberline {1.1}{\ignorespaces Capture d'\IeC {\'e}cran du jeu vid\IeC {\'e}o Minecraft java \IeC {\'e}dition.}}{2}{figure.1.1}\protected@file@percent }
\newlabel{screen_shot}{{1.1}{2}{Capture d'écran du jeu vidéo Minecraft java édition}{figure.1.1}{}}
\abx@aux@cite{wiki:crafting}
\abx@aux@segm{0}{0}{wiki:crafting}
\@writefile{toc}{\defcounter {refsection}{0}\relax }\@writefile{toc}{\contentsline {section}{\numberline {1.2}Motivations et objectifs}{3}{section.1.2}\protected@file@percent }
\abx@aux@page{3}{3}
\@writefile{toc}{\defcounter {refsection}{0}\relax }\@writefile{toc}{\contentsline {chapter}{\numberline {2}Mise en place de l'ontologie}{4}{chapter.2}\protected@file@percent }
\@writefile{lof}{\defcounter {refsection}{0}\relax }\@writefile{lof}{\addvspace {10\p@ }}
\@writefile{lot}{\defcounter {refsection}{0}\relax }\@writefile{lot}{\addvspace {10\p@ }}
\@writefile{toc}{\defcounter {refsection}{0}\relax }\@writefile{toc}{\contentsline {section}{\numberline {2.1}Mod\IeC {\'e}lisation de la T-box}{4}{section.2.1}\protected@file@percent }
\@writefile{toc}{\defcounter {refsection}{0}\relax }\@writefile{toc}{\contentsline {subsection}{\numberline {2.1.1}Classes}{4}{subsection.2.1.1}\protected@file@percent }
\@writefile{toc}{\defcounter {refsection}{0}\relax }\@writefile{toc}{\contentsline {subsection}{\numberline {2.1.2}Relations}{5}{subsection.2.1.2}\protected@file@percent }
\@writefile{toc}{\defcounter {refsection}{0}\relax }\@writefile{toc}{\contentsline {subsubsection}{craft}{5}{section*.2}\protected@file@percent }
\@writefile{lof}{\defcounter {refsection}{0}\relax }\@writefile{lof}{\contentsline {figure}{\numberline {2.1}{\ignorespaces Repr\IeC {\'e}sentation graphique simplifi\IeC {\'e}e du craft de la fl\IeC {\`e}che.}}{5}{figure.2.1}\protected@file@percent }
\newlabel{craft_model}{{2.1}{5}{Représentation graphique simplifiée du craft de la flèche}{figure.2.1}{}}
\@writefile{toc}{\defcounter {refsection}{0}\relax }\@writefile{toc}{\contentsline {subsubsection}{drop}{6}{section*.3}\protected@file@percent }
\@writefile{lof}{\defcounter {refsection}{0}\relax }\@writefile{lof}{\contentsline {figure}{\numberline {2.2}{\ignorespaces Repr\IeC {\'e}sentation graphique simplifi\IeC {\'e}e du drop du gravier.}}{6}{figure.2.2}\protected@file@percent }
\newlabel{drop_gravier}{{2.2}{6}{Représentation graphique simplifiée du drop du gravier}{figure.2.2}{}}
\@writefile{toc}{\defcounter {refsection}{0}\relax }\@writefile{toc}{\contentsline {section}{\numberline {2.2}Constitution de la A-box}{6}{section.2.2}\protected@file@percent }
\@writefile{lof}{\defcounter {refsection}{0}\relax }\@writefile{lof}{\contentsline {figure}{\numberline {2.3}{\ignorespaces Capture d'\IeC {\'e}cran repr\IeC {\'e}sentant un extrait du fichier \texttt  {craft.csv}.}}{7}{figure.2.3}\protected@file@percent }
\newlabel{craft_csv}{{2.3}{7}{Capture d'écran représentant un extrait du fichier \texttt {craft.csv}}{figure.2.3}{}}
\@writefile{lof}{\defcounter {refsection}{0}\relax }\@writefile{lof}{\contentsline {figure}{\numberline {2.4}{\ignorespaces Extrait du fichier \texttt  {instance.ttl} obtenu \IeC {\`a} l'aide du programme \texttt  {csvTOturtle} et \IeC {\`a} partir de fichier csv.}}{7}{figure.2.4}\protected@file@percent }
\newlabel{extrat_result}{{2.4}{7}{Extrait du fichier \texttt {instance.ttl} obtenu à l'aide du programme \texttt {csvTOturtle} et à partir de fichier csv}{figure.2.4}{}}
\@writefile{toc}{\defcounter {refsection}{0}\relax }\@writefile{toc}{\contentsline {section}{\numberline {2.3}Mise en place des r\IeC {\`e}gles SWRL}{7}{section.2.3}\protected@file@percent }
\@writefile{lof}{\defcounter {refsection}{0}\relax }\@writefile{lof}{\contentsline {figure}{\numberline {2.5}{\ignorespaces Capture d'\IeC {\'e}cran de l'ensemble des classes de notre ontologie minecraft.}}{8}{figure.2.5}\protected@file@percent }
\newlabel{classes}{{2.5}{8}{Capture d'écran de l'ensemble des classes de notre ontologie minecraft}{figure.2.5}{}}
\@writefile{toc}{\defcounter {refsection}{0}\relax }\@writefile{toc}{\contentsline {chapter}{\numberline {3}Illustration d\IeC {\textquoteright }utilisation}{9}{chapter.3}\protected@file@percent }
\@writefile{lof}{\defcounter {refsection}{0}\relax }\@writefile{lof}{\addvspace {10\p@ }}
\@writefile{lot}{\defcounter {refsection}{0}\relax }\@writefile{lot}{\addvspace {10\p@ }}
\@writefile{toc}{\defcounter {refsection}{0}\relax }\@writefile{toc}{\contentsline {chapter}{\numberline {4}Conclusion}{11}{chapter.4}\protected@file@percent }
\@writefile{lof}{\defcounter {refsection}{0}\relax }\@writefile{lof}{\addvspace {10\p@ }}
\@writefile{lot}{\defcounter {refsection}{0}\relax }\@writefile{lot}{\addvspace {10\p@ }}
\abx@aux@refcontextdefaultsdone
\abx@aux@defaultrefcontext{0}{wiki:crafting}{nty/global//global/global}
\abx@aux@defaultrefcontext{0}{wiki:Minecraft}{nty/global//global/global}
\abx@aux@defaultrefcontext{0}{wiki:Survival_game}{nty/global//global/global}
\abx@aux@page{4}{12}
\abx@aux@page{5}{12}
\abx@aux@page{6}{12}
