\BOOKMARK [0][-]{chapter.1}{Introduction}{}% 1
\BOOKMARK [1][-]{section.1.1}{Pr\351sentation du sujet}{chapter.1}% 2
\BOOKMARK [1][-]{section.1.2}{Motivations et objectifs}{chapter.1}% 3
\BOOKMARK [0][-]{chapter.2}{Mise en place de l'ontologie}{}% 4
\BOOKMARK [1][-]{section.2.1}{Mod\351lisation de la T-box}{chapter.2}% 5
\BOOKMARK [2][-]{subsection.2.1.1}{Classes}{section.2.1}% 6
\BOOKMARK [2][-]{subsection.2.1.2}{Relations}{section.2.1}% 7
\BOOKMARK [1][-]{section.2.2}{Constitution de la A-box}{chapter.2}% 8
\BOOKMARK [1][-]{section.2.3}{Mise en place des r\350gles SWRL}{chapter.2}% 9
\BOOKMARK [0][-]{chapter.3}{Illustration d\220utilisation}{}% 10
\BOOKMARK [0][-]{chapter.4}{Conclusion}{}% 11
